{
  "configVersion": 2,
  "packages": [
    {
      "name": "archive",
      "rootUri": "file:///Users/afamiliar/Downloads/flutter/.pub-cache/hosted/pub.dartlang.org/archive-2.0.13",
      "packageUri": "lib/",
      "languageVersion": "2.0"
    },
    {
      "name": "args",
      "rootUri": "file:///Users/afamiliar/Downloads/flutter/.pub-cache/hosted/pub.dartlang.org/args-1.6.0",
      "packageUri": "lib/",
      "languageVersion": "2.3"
    },
    {
      "name": "async",
      "rootUri": "file:///Users/afamiliar/Downloads/flutter/.pub-cache/hosted/pub.dartlang.org/async-2.5.0-nullsafety.1",
      "packageUri": "lib/",
      "languageVersion": "2.10"
    },
    {
      "name": "basic_utils",
      "rootUri": "file:///Users/afamiliar/Downloads/flutter/.pub-cache/hosted/pub.dartlang.org/basic_utils-2.7.0-rc.4",
      "packageUri": "lib/",
      "languageVersion": "2.1"
    },
    {
      "name": "bloc",
      "rootUri": "file:///Users/afamiliar/Downloads/flutter/.pub-cache/hosted/pub.dartlang.org/bloc-6.1.1",
      "packageUri": "lib/",
      "languageVersion": "2.6"
    },
    {
      "name": "boolean_selector",
      "rootUri": "file:///Users/afamiliar/Downloads/flutter/.pub-cache/hosted/pub.dartlang.org/boolean_selector-2.1.0-nullsafety.1",
      "packageUri": "lib/",
      "languageVersion": "2.10"
    },
    {
      "name": "bot_toast",
      "rootUri": "file:///Users/afamiliar/Downloads/flutter/.pub-cache/hosted/pub.dartlang.org/bot_toast-3.0.5",
      "packageUri": "lib/",
      "languageVersion": "2.1"
    },
    {
      "name": "bubble_tab_indicator",
      "rootUri": "file:///Users/afamiliar/Downloads/flutter/.pub-cache/hosted/pub.dartlang.org/bubble_tab_indicator-0.1.4",
      "packageUri": "lib/",
      "languageVersion": "1.23"
    },
    {
      "name": "cached_network_image",
      "rootUri": "file:///Users/afamiliar/Downloads/flutter/.pub-cache/hosted/pub.dartlang.org/cached_network_image-2.5.0",
      "packageUri": "lib/",
      "languageVersion": "2.10"
    },
    {
      "name": "carousel_slider",
      "rootUri": "file:///Users/afamiliar/Downloads/flutter/.pub-cache/hosted/pub.dartlang.org/carousel_slider-2.3.1",
      "packageUri": "lib/",
      "languageVersion": "2.6"
    },
    {
      "name": "characters",
      "rootUri": "file:///Users/afamiliar/Downloads/flutter/.pub-cache/hosted/pub.dartlang.org/characters-1.1.0-nullsafety.3",
      "packageUri": "lib/",
      "languageVersion": "2.10"
    },
    {
      "name": "charcode",
      "rootUri": "file:///Users/afamiliar/Downloads/flutter/.pub-cache/hosted/pub.dartlang.org/charcode-1.2.0-nullsafety.1",
      "packageUri": "lib/",
      "languageVersion": "2.10"
    },
    {
      "name": "chewie",
      "rootUri": "file:///Users/afamiliar/Downloads/flutter/.pub-cache/hosted/pub.dartlang.org/chewie-0.12.1+1",
      "packageUri": "lib/",
      "languageVersion": "2.7"
    },
    {
      "name": "chewie_audio",
      "rootUri": "file:///Users/afamiliar/Downloads/flutter/.pub-cache/hosted/pub.dartlang.org/chewie_audio-1.1.1",
      "packageUri": "lib/",
      "languageVersion": "2.8"
    },
    {
      "name": "clock",
      "rootUri": "file:///Users/afamiliar/Downloads/flutter/.pub-cache/hosted/pub.dartlang.org/clock-1.1.0-nullsafety.1",
      "packageUri": "lib/",
      "languageVersion": "2.10"
    },
    {
      "name": "cloud_firestore",
      "rootUri": "file:///Users/afamiliar/Downloads/flutter/.pub-cache/hosted/pub.dartlang.org/cloud_firestore-0.14.4",
      "packageUri": "lib/",
      "languageVersion": "2.1"
    },
    {
      "name": "cloud_firestore_platform_interface",
      "rootUri": "file:///Users/afamiliar/Downloads/flutter/.pub-cache/hosted/pub.dartlang.org/cloud_firestore_platform_interface-2.2.1",
      "packageUri": "lib/",
      "languageVersion": "2.0"
    },
    {
      "name": "cloud_firestore_web",
      "rootUri": "file:///Users/afamiliar/Downloads/flutter/.pub-cache/hosted/pub.dartlang.org/cloud_firestore_web-0.2.1+2",
      "packageUri": "lib/",
      "languageVersion": "2.1"
    },
    {
      "name": "collection",
      "rootUri": "file:///Users/afamiliar/Downloads/flutter/.pub-cache/hosted/pub.dartlang.org/collection-1.15.0-nullsafety.3",
      "packageUri": "lib/",
      "languageVersion": "2.10"
    },
    {
      "name": "color",
      "rootUri": "file:///Users/afamiliar/Downloads/flutter/.pub-cache/hosted/pub.dartlang.org/color-2.1.1",
      "packageUri": "lib/",
      "languageVersion": "2.0"
    },
    {
      "name": "convert",
      "rootUri": "file:///Users/afamiliar/Downloads/flutter/.pub-cache/hosted/pub.dartlang.org/convert-2.1.1",
      "packageUri": "lib/",
      "languageVersion": "1.17"
    },
    {
      "name": "crypto",
      "rootUri": "file:///Users/afamiliar/Downloads/flutter/.pub-cache/hosted/pub.dartlang.org/crypto-2.1.5",
      "packageUri": "lib/",
      "languageVersion": "2.3"
    },
    {
      "name": "css_colors",
      "rootUri": "file:///Users/afamiliar/Downloads/flutter/.pub-cache/hosted/pub.dartlang.org/css_colors-1.0.2",
      "packageUri": "lib/",
      "languageVersion": "1.19"
    },
    {
      "name": "csslib",
      "rootUri": "file:///Users/afamiliar/Downloads/flutter/.pub-cache/hosted/pub.dartlang.org/csslib-0.16.2",
      "packageUri": "lib/",
      "languageVersion": "2.2"
    },
    {
      "name": "cupertino_icons",
      "rootUri": "file:///Users/afamiliar/Downloads/flutter/.pub-cache/hosted/pub.dartlang.org/cupertino_icons-1.0.0",
      "packageUri": "lib/",
      "languageVersion": "2.0"
    },
    {
      "name": "dio",
      "rootUri": "file:///Users/afamiliar/Downloads/flutter/.pub-cache/hosted/pub.dartlang.org/dio-3.0.10",
      "packageUri": "lib/",
      "languageVersion": "2.4"
    },
    {
      "name": "dotted_decoration",
      "rootUri": "file:///Users/afamiliar/Downloads/flutter/.pub-cache/hosted/pub.dartlang.org/dotted_decoration-1.2.2",
      "packageUri": "lib/",
      "languageVersion": "2.1"
    },
    {
      "name": "easy_localization",
      "rootUri": "file:///Users/afamiliar/Downloads/flutter/.pub-cache/hosted/pub.dartlang.org/easy_localization-2.3.3",
      "packageUri": "lib/",
      "languageVersion": "2.7"
    },
    {
      "name": "equatable",
      "rootUri": "file:///Users/afamiliar/Downloads/flutter/.pub-cache/hosted/pub.dartlang.org/equatable-1.2.5",
      "packageUri": "lib/",
      "languageVersion": "2.0"
    },
    {
      "name": "expandable",
      "rootUri": "file:///Users/afamiliar/Downloads/flutter/.pub-cache/hosted/pub.dartlang.org/expandable-4.1.4",
      "packageUri": "lib/",
      "languageVersion": "2.7"
    },
    {
      "name": "fake_async",
      "rootUri": "file:///Users/afamiliar/Downloads/flutter/.pub-cache/hosted/pub.dartlang.org/fake_async-1.2.0-nullsafety.1",
      "packageUri": "lib/",
      "languageVersion": "2.10"
    },
    {
      "name": "ffi",
      "rootUri": "file:///Users/afamiliar/Downloads/flutter/.pub-cache/hosted/pub.dartlang.org/ffi-0.1.3",
      "packageUri": "lib/",
      "languageVersion": "2.6"
    },
    {
      "name": "file",
      "rootUri": "file:///Users/afamiliar/Downloads/flutter/.pub-cache/hosted/pub.dartlang.org/file-5.2.1",
      "packageUri": "lib/",
      "languageVersion": "2.2"
    },
    {
      "name": "firebase_auth",
      "rootUri": "file:///Users/afamiliar/Downloads/flutter/.pub-cache/hosted/pub.dartlang.org/firebase_auth-0.18.4+1",
      "packageUri": "lib/",
      "languageVersion": "2.0"
    },
    {
      "name": "firebase_auth_platform_interface",
      "rootUri": "file:///Users/afamiliar/Downloads/flutter/.pub-cache/hosted/pub.dartlang.org/firebase_auth_platform_interface-2.1.4",
      "packageUri": "lib/",
      "languageVersion": "2.0"
    },
    {
      "name": "firebase_auth_web",
      "rootUri": "file:///Users/afamiliar/Downloads/flutter/.pub-cache/hosted/pub.dartlang.org/firebase_auth_web-0.3.2+3",
      "packageUri": "lib/",
      "languageVersion": "2.0"
    },
    {
      "name": "firebase_core",
      "rootUri": "file:///Users/afamiliar/Downloads/flutter/.pub-cache/hosted/pub.dartlang.org/firebase_core-0.5.3",
      "packageUri": "lib/",
      "languageVersion": "2.1"
    },
    {
      "name": "firebase_core_platform_interface",
      "rootUri": "file:///Users/afamiliar/Downloads/flutter/.pub-cache/hosted/pub.dartlang.org/firebase_core_platform_interface-2.1.0",
      "packageUri": "lib/",
      "languageVersion": "2.1"
    },
    {
      "name": "firebase_core_web",
      "rootUri": "file:///Users/afamiliar/Downloads/flutter/.pub-cache/hosted/pub.dartlang.org/firebase_core_web-0.2.1+1",
      "packageUri": "lib/",
      "languageVersion": "2.1"
    },
    {
      "name": "firebase_database",
      "rootUri": "file:///Users/afamiliar/Downloads/flutter/.pub-cache/hosted/pub.dartlang.org/firebase_database-4.4.0",
      "packageUri": "lib/",
      "languageVersion": "2.0"
    },
    {
      "name": "firebase_dynamic_links",
      "rootUri": "file:///Users/afamiliar/Downloads/flutter/.pub-cache/hosted/pub.dartlang.org/firebase_dynamic_links-0.6.3",
      "packageUri": "lib/",
      "languageVersion": "2.0"
    },
    {
      "name": "firebase_messaging",
      "rootUri": "file:///Users/afamiliar/Downloads/flutter/.pub-cache/hosted/pub.dartlang.org/firebase_messaging-7.0.3",
      "packageUri": "lib/",
      "languageVersion": "2.0"
    },
    {
      "name": "firebase_storage",
      "rootUri": "file:///Users/afamiliar/Downloads/flutter/.pub-cache/hosted/pub.dartlang.org/firebase_storage-4.0.1",
      "packageUri": "lib/",
      "languageVersion": "2.0"
    },
    {
      "name": "fl_chart",
      "rootUri": "file:///Users/afamiliar/Downloads/flutter/.pub-cache/hosted/pub.dartlang.org/fl_chart-0.12.2",
      "packageUri": "lib/",
      "languageVersion": "2.6"
    },
    {
      "name": "flutter",
      "rootUri": "file:///Users/afamiliar/Downloads/flutter/packages/flutter",
      "packageUri": "lib/",
      "languageVersion": "2.10"
    },
    {
      "name": "flutter_bloc",
      "rootUri": "file:///Users/afamiliar/Downloads/flutter/.pub-cache/hosted/pub.dartlang.org/flutter_bloc-6.1.1",
      "packageUri": "lib/",
      "languageVersion": "2.6"
    },
    {
      "name": "flutter_blurhash",
      "rootUri": "file:///Users/afamiliar/Downloads/flutter/.pub-cache/hosted/pub.dartlang.org/flutter_blurhash-0.5.0",
      "packageUri": "lib/",
      "languageVersion": "2.4"
    },
    {
      "name": "flutter_cache_manager",
      "rootUri": "file:///Users/afamiliar/Downloads/flutter/.pub-cache/hosted/pub.dartlang.org/flutter_cache_manager-2.1.1",
      "packageUri": "lib/",
      "languageVersion": "2.6"
    },
    {
      "name": "flutter_easyloading",
      "rootUri": "file:///Users/afamiliar/Downloads/flutter/.pub-cache/hosted/pub.dartlang.org/flutter_easyloading-1.3.0",
      "packageUri": "lib/",
      "languageVersion": "2.2"
    },
    {
      "name": "flutter_html",
      "rootUri": "file:///Users/afamiliar/Downloads/flutter/.pub-cache/hosted/pub.dartlang.org/flutter_html-1.2.0",
      "packageUri": "lib/",
      "languageVersion": "2.2"
    },
    {
      "name": "flutter_layout_grid",
      "rootUri": "file:///Users/afamiliar/Downloads/flutter/.pub-cache/hosted/pub.dartlang.org/flutter_layout_grid-0.10.3",
      "packageUri": "lib/",
      "languageVersion": "2.6"
    },
    {
      "name": "flutter_local_notifications",
      "rootUri": "file:///Users/afamiliar/Downloads/flutter/.pub-cache/hosted/pub.dartlang.org/flutter_local_notifications-3.0.3",
      "packageUri": "lib/",
      "languageVersion": "2.6"
    },
    {
      "name": "flutter_local_notifications_platform_interface",
      "rootUri": "file:///Users/afamiliar/Downloads/flutter/.pub-cache/hosted/pub.dartlang.org/flutter_local_notifications_platform_interface-2.0.0+1",
      "packageUri": "lib/",
      "languageVersion": "2.1"
    },
    {
      "name": "flutter_localizations",
      "rootUri": "file:///Users/afamiliar/Downloads/flutter/packages/flutter_localizations",
      "packageUri": "lib/",
      "languageVersion": "2.2"
    },
    {
      "name": "flutter_native_splash",
      "rootUri": "file:///Users/afamiliar/Downloads/flutter/.pub-cache/hosted/pub.dartlang.org/flutter_native_splash-0.1.9",
      "packageUri": "lib/",
      "languageVersion": "2.2"
    },
    {
      "name": "flutter_plugin_android_lifecycle",
      "rootUri": "file:///Users/afamiliar/Downloads/flutter/.pub-cache/hosted/pub.dartlang.org/flutter_plugin_android_lifecycle-1.0.11",
      "packageUri": "lib/",
      "languageVersion": "2.1"
    },
    {
      "name": "flutter_radar_chart",
      "rootUri": "file:///Users/afamiliar/Downloads/flutter/.pub-cache/hosted/pub.dartlang.org/flutter_radar_chart-0.1.6",
      "packageUri": "lib/",
      "languageVersion": "2.1"
    },
    {
      "name": "flutter_rating_bar",
      "rootUri": "file:///Users/afamiliar/Downloads/flutter/.pub-cache/hosted/pub.dartlang.org/flutter_rating_bar-3.2.0+1",
      "packageUri": "lib/",
      "languageVersion": "2.5"
    },
    {
      "name": "flutter_spinkit",
      "rootUri": "file:///Users/afamiliar/Downloads/flutter/.pub-cache/hosted/pub.dartlang.org/flutter_spinkit-4.1.2+1",
      "packageUri": "lib/",
      "languageVersion": "2.5"
    },
    {
      "name": "flutter_staggered_grid_view",
      "rootUri": "file:///Users/afamiliar/Downloads/flutter/.pub-cache/hosted/pub.dartlang.org/flutter_staggered_grid_view-0.3.3",
      "packageUri": "lib/",
      "languageVersion": "1.19"
    },
    {
      "name": "flutter_svg",
      "rootUri": "file:///Users/afamiliar/Downloads/flutter/.pub-cache/hosted/pub.dartlang.org/flutter_svg-0.19.1",
      "packageUri": "lib/",
      "languageVersion": "2.2"
    },
    {
      "name": "flutter_test",
      "rootUri": "file:///Users/afamiliar/Downloads/flutter/packages/flutter_test",
      "packageUri": "lib/",
      "languageVersion": "2.2"
    },
    {
      "name": "flutter_web_plugins",
      "rootUri": "file:///Users/afamiliar/Downloads/flutter/packages/flutter_web_plugins",
      "packageUri": "lib/",
      "languageVersion": "2.0"
    },
    {
      "name": "fluttertoast",
      "rootUri": "file:///Users/afamiliar/Downloads/flutter/.pub-cache/hosted/pub.dartlang.org/fluttertoast-7.1.6",
      "packageUri": "lib/",
      "languageVersion": "2.7"
    },
    {
      "name": "geolocator",
      "rootUri": "file:///Users/afamiliar/Downloads/flutter/.pub-cache/hosted/pub.dartlang.org/geolocator-6.1.13",
      "packageUri": "lib/",
      "languageVersion": "2.7"
    },
    {
      "name": "geolocator_platform_interface",
      "rootUri": "file:///Users/afamiliar/Downloads/flutter/.pub-cache/hosted/pub.dartlang.org/geolocator_platform_interface-1.0.8",
      "packageUri": "lib/",
      "languageVersion": "2.7"
    },
    {
      "name": "google_maps_flutter",
      "rootUri": "file:///Users/afamiliar/Downloads/flutter/.pub-cache/hosted/pub.dartlang.org/google_maps_flutter-1.1.1",
      "packageUri": "lib/",
      "languageVersion": "2.1"
    },
    {
      "name": "google_maps_flutter_platform_interface",
      "rootUri": "file:///Users/afamiliar/Downloads/flutter/.pub-cache/hosted/pub.dartlang.org/google_maps_flutter_platform_interface-1.1.0",
      "packageUri": "lib/",
      "languageVersion": "2.3"
    },
    {
      "name": "google_sign_in",
      "rootUri": "file:///Users/afamiliar/Downloads/flutter/.pub-cache/hosted/pub.dartlang.org/google_sign_in-4.5.9",
      "packageUri": "lib/",
      "languageVersion": "2.1"
    },
    {
      "name": "google_sign_in_platform_interface",
      "rootUri": "file:///Users/afamiliar/Downloads/flutter/.pub-cache/hosted/pub.dartlang.org/google_sign_in_platform_interface-1.1.2",
      "packageUri": "lib/",
      "languageVersion": "2.1"
    },
    {
      "name": "google_sign_in_web",
      "rootUri": "file:///Users/afamiliar/Downloads/flutter/.pub-cache/hosted/pub.dartlang.org/google_sign_in_web-0.9.2",
      "packageUri": "lib/",
      "languageVersion": "2.6"
    },
    {
      "name": "horizontal_data_table",
      "rootUri": "file:///Users/afamiliar/Downloads/flutter/.pub-cache/hosted/pub.dartlang.org/horizontal_data_table-2.0.0",
      "packageUri": "lib/",
      "languageVersion": "2.1"
    },
    {
      "name": "html",
      "rootUri": "file:///Users/afamiliar/Downloads/flutter/.pub-cache/hosted/pub.dartlang.org/html-0.14.0+4",
      "packageUri": "lib/",
      "languageVersion": "2.3"
    },
    {
      "name": "http",
      "rootUri": "file:///Users/afamiliar/Downloads/flutter/.pub-cache/hosted/pub.dartlang.org/http-0.12.2",
      "packageUri": "lib/",
      "languageVersion": "2.4"
    },
    {
      "name": "http_parser",
      "rootUri": "file:///Users/afamiliar/Downloads/flutter/.pub-cache/hosted/pub.dartlang.org/http_parser-3.1.4",
      "packageUri": "lib/",
      "languageVersion": "2.3"
    },
    {
      "name": "image",
      "rootUri": "file:///Users/afamiliar/Downloads/flutter/.pub-cache/hosted/pub.dartlang.org/image-2.1.19",
      "packageUri": "lib/",
      "languageVersion": "2.0"
    },
    {
      "name": "image_picker",
      "rootUri": "file:///Users/afamiliar/Downloads/flutter/.pub-cache/hosted/pub.dartlang.org/image_picker-0.6.7+21",
      "packageUri": "lib/",
      "languageVersion": "2.1"
    },
    {
      "name": "image_picker_platform_interface",
      "rootUri": "file:///Users/afamiliar/Downloads/flutter/.pub-cache/hosted/pub.dartlang.org/image_picker_platform_interface-1.1.1",
      "packageUri": "lib/",
      "languageVersion": "2.5"
    },
    {
      "name": "import_js_library",
      "rootUri": "file:///Users/afamiliar/Downloads/flutter/.pub-cache/hosted/pub.dartlang.org/import_js_library-1.0.2",
      "packageUri": "lib/",
      "languageVersion": "2.7"
    },
    {
      "name": "intl",
      "rootUri": "file:///Users/afamiliar/Downloads/flutter/.pub-cache/hosted/pub.dartlang.org/intl-0.16.1",
      "packageUri": "lib/",
      "languageVersion": "2.5"
    },
    {
      "name": "js",
      "rootUri": "file:///Users/afamiliar/Downloads/flutter/.pub-cache/hosted/pub.dartlang.org/js-0.6.2",
      "packageUri": "lib/",
      "languageVersion": "2.0"
    },
    {
      "name": "json_annotation",
      "rootUri": "file:///Users/afamiliar/Downloads/flutter/.pub-cache/hosted/pub.dartlang.org/json_annotation-3.1.1",
      "packageUri": "lib/",
      "languageVersion": "2.7"
    },
    {
      "name": "kakao_flutter_sdk",
      "rootUri": "file:///Users/afamiliar/Downloads/flutter/.pub-cache/hosted/pub.dartlang.org/kakao_flutter_sdk-0.5.2",
      "packageUri": "lib/",
      "languageVersion": "2.2"
    },
    {
      "name": "location",
      "rootUri": "file:///Users/afamiliar/Downloads/flutter/.pub-cache/hosted/pub.dartlang.org/location-3.2.1",
      "packageUri": "lib/",
      "languageVersion": "2.1"
    },
    {
      "name": "location_platform_interface",
      "rootUri": "file:///Users/afamiliar/Downloads/flutter/.pub-cache/hosted/pub.dartlang.org/location_platform_interface-1.1.0",
      "packageUri": "lib/",
      "languageVersion": "2.4"
    },
    {
      "name": "location_web",
      "rootUri": "file:///Users/afamiliar/Downloads/flutter/.pub-cache/hosted/pub.dartlang.org/location_web-1.0.1",
      "packageUri": "lib/",
      "languageVersion": "2.1"
    },
    {
      "name": "logging",
      "rootUri": "file:///Users/afamiliar/Downloads/flutter/.pub-cache/hosted/pub.dartlang.org/logging-0.11.4",
      "packageUri": "lib/",
      "languageVersion": "2.0"
    },
    {
      "name": "lottie",
      "rootUri": "file:///Users/afamiliar/Downloads/flutter/.pub-cache/hosted/pub.dartlang.org/lottie-0.5.1",
      "packageUri": "lib/",
      "languageVersion": "2.7"
    },
    {
      "name": "matcher",
      "rootUri": "file:///Users/afamiliar/Downloads/flutter/.pub-cache/hosted/pub.dartlang.org/matcher-0.12.10-nullsafety.1",
      "packageUri": "lib/",
      "languageVersion": "2.10"
    },
    {
      "name": "meta",
      "rootUri": "file:///Users/afamiliar/Downloads/flutter/.pub-cache/hosted/pub.dartlang.org/meta-1.3.0-nullsafety.3",
      "packageUri": "lib/",
      "languageVersion": "2.10"
    },
    {
      "name": "mime",
      "rootUri": "file:///Users/afamiliar/Downloads/flutter/.pub-cache/hosted/pub.dartlang.org/mime-0.9.7",
      "packageUri": "lib/",
      "languageVersion": "2.0"
    },
    {
      "name": "multi_image_picker",
      "rootUri": "file:///Users/afamiliar/Downloads/flutter/.pub-cache/hosted/pub.dartlang.org/multi_image_picker-4.7.14",
      "packageUri": "lib/",
      "languageVersion": "2.0"
    },
    {
      "name": "nested",
      "rootUri": "file:///Users/afamiliar/Downloads/flutter/.pub-cache/hosted/pub.dartlang.org/nested-0.0.4",
      "packageUri": "lib/",
      "languageVersion": "2.2"
    },
    {
      "name": "octo_image",
      "rootUri": "file:///Users/afamiliar/Downloads/flutter/.pub-cache/hosted/pub.dartlang.org/octo_image-0.3.0",
      "packageUri": "lib/",
      "languageVersion": "2.7"
    },
    {
      "name": "package_info",
      "rootUri": "file:///Users/afamiliar/Downloads/flutter/.pub-cache/hosted/pub.dartlang.org/package_info-0.4.3+2",
      "packageUri": "lib/",
      "languageVersion": "2.1"
    },
    {
      "name": "page_view_indicator",
      "rootUri": "file:///Users/afamiliar/Downloads/flutter/.pub-cache/hosted/pub.dartlang.org/page_view_indicator-2.0.4",
      "packageUri": "lib/",
      "languageVersion": "2.0"
    },
    {
      "name": "path",
      "rootUri": "file:///Users/afamiliar/Downloads/flutter/.pub-cache/hosted/pub.dartlang.org/path-1.8.0-nullsafety.1",
      "packageUri": "lib/",
      "languageVersion": "2.10"
    },
    {
      "name": "path_drawing",
      "rootUri": "file:///Users/afamiliar/Downloads/flutter/.pub-cache/hosted/pub.dartlang.org/path_drawing-0.4.1+1",
      "packageUri": "lib/",
      "languageVersion": "1.19"
    },
    {
      "name": "path_parsing",
      "rootUri": "file:///Users/afamiliar/Downloads/flutter/.pub-cache/hosted/pub.dartlang.org/path_parsing-0.1.4",
      "packageUri": "lib/",
      "languageVersion": "1.19"
    },
    {
      "name": "path_provider",
      "rootUri": "file:///Users/afamiliar/Downloads/flutter/.pub-cache/hosted/pub.dartlang.org/path_provider-1.6.27",
      "packageUri": "lib/",
      "languageVersion": "2.1"
    },
    {
      "name": "path_provider_linux",
      "rootUri": "file:///Users/afamiliar/Downloads/flutter/.pub-cache/hosted/pub.dartlang.org/path_provider_linux-0.0.1+2",
      "packageUri": "lib/",
      "languageVersion": "2.1"
    },
    {
      "name": "path_provider_macos",
      "rootUri": "file:///Users/afamiliar/Downloads/flutter/.pub-cache/hosted/pub.dartlang.org/path_provider_macos-0.0.4+8",
      "packageUri": "lib/",
      "languageVersion": "2.1"
    },
    {
      "name": "path_provider_platform_interface",
      "rootUri": "file:///Users/afamiliar/Downloads/flutter/.pub-cache/hosted/pub.dartlang.org/path_provider_platform_interface-1.0.4",
      "packageUri": "lib/",
      "languageVersion": "2.1"
    },
    {
      "name": "path_provider_windows",
      "rootUri": "file:///Users/afamiliar/Downloads/flutter/.pub-cache/hosted/pub.dartlang.org/path_provider_windows-0.0.4+3",
      "packageUri": "lib/",
      "languageVersion": "2.1"
    },
    {
      "name": "pedantic",
      "rootUri": "file:///Users/afamiliar/Downloads/flutter/.pub-cache/hosted/pub.dartlang.org/pedantic-1.9.2",
      "packageUri": "lib/",
      "languageVersion": "2.1"
    },
    {
      "name": "percent_indicator",
      "rootUri": "file:///Users/afamiliar/Downloads/flutter/.pub-cache/hosted/pub.dartlang.org/percent_indicator-2.1.9",
      "packageUri": "lib/",
      "languageVersion": "2.7"
    },
    {
      "name": "petitparser",
      "rootUri": "file:///Users/afamiliar/Downloads/flutter/.pub-cache/hosted/pub.dartlang.org/petitparser-3.1.0",
      "packageUri": "lib/",
      "languageVersion": "2.7"
    },
    {
      "name": "photo_view",
      "rootUri": "file:///Users/afamiliar/Downloads/flutter/.pub-cache/hosted/pub.dartlang.org/photo_view-0.10.3",
      "packageUri": "lib/",
      "languageVersion": "2.6"
    },
    {
      "name": "platform",
      "rootUri": "file:///Users/afamiliar/Downloads/flutter/.pub-cache/hosted/pub.dartlang.org/platform-2.2.1",
      "packageUri": "lib/",
      "languageVersion": "1.24"
    },
    {
      "name": "plugin_platform_interface",
      "rootUri": "file:///Users/afamiliar/Downloads/flutter/.pub-cache/hosted/pub.dartlang.org/plugin_platform_interface-1.0.3",
      "packageUri": "lib/",
      "languageVersion": "2.1"
    },
    {
      "name": "pointycastle",
      "rootUri": "file:///Users/afamiliar/Downloads/flutter/.pub-cache/hosted/pub.dartlang.org/pointycastle-2.0.0",
      "packageUri": "lib/",
      "languageVersion": "2.1"
    },
    {
      "name": "process",
      "rootUri": "file:///Users/afamiliar/Downloads/flutter/.pub-cache/hosted/pub.dartlang.org/process-3.0.13",
      "packageUri": "lib/",
      "languageVersion": "2.0"
    },
    {
      "name": "provider",
      "rootUri": "file:///Users/afamiliar/Downloads/flutter/.pub-cache/hosted/pub.dartlang.org/provider-4.3.2+4",
      "packageUri": "lib/",
      "languageVersion": "2.7"
    },
    {
      "name": "pull_to_refresh",
      "rootUri": "file:///Users/afamiliar/Downloads/flutter/.pub-cache/hosted/pub.dartlang.org/pull_to_refresh-1.6.3",
      "packageUri": "lib/",
      "languageVersion": "2.1"
    },
    {
      "name": "quiver",
      "rootUri": "file:///Users/afamiliar/Downloads/flutter/.pub-cache/hosted/pub.dartlang.org/quiver-2.1.5",
      "packageUri": "lib/",
      "languageVersion": "2.0"
    },
    {
      "name": "random_string",
      "rootUri": "file:///Users/afamiliar/Downloads/flutter/.pub-cache/hosted/pub.dartlang.org/random_string-2.1.0",
      "packageUri": "lib/",
      "languageVersion": "2.1"
    },
    {
      "name": "retry",
      "rootUri": "file:///Users/afamiliar/Downloads/flutter/.pub-cache/hosted/pub.dartlang.org/retry-3.0.1",
      "packageUri": "lib/",
      "languageVersion": "2.0"
    },
    {
      "name": "rxdart",
      "rootUri": "file:///Users/afamiliar/Downloads/flutter/.pub-cache/hosted/pub.dartlang.org/rxdart-0.24.1",
      "packageUri": "lib/",
      "languageVersion": "2.6"
    },
    {
      "name": "screenshot",
      "rootUri": "file:///Users/afamiliar/Downloads/flutter/.pub-cache/hosted/pub.dartlang.org/screenshot-0.2.0",
      "packageUri": "lib/",
      "languageVersion": "2.0"
    },
    {
      "name": "share",
      "rootUri": "file:///Users/afamiliar/Downloads/flutter/.pub-cache/hosted/pub.dartlang.org/share-0.6.5+4",
      "packageUri": "lib/",
      "languageVersion": "2.1"
    },
    {
      "name": "shared_preferences",
      "rootUri": "file:///Users/afamiliar/Downloads/flutter/.pub-cache/hosted/pub.dartlang.org/shared_preferences-0.5.12+4",
      "packageUri": "lib/",
      "languageVersion": "2.1"
    },
    {
      "name": "shared_preferences_linux",
      "rootUri": "file:///Users/afamiliar/Downloads/flutter/.pub-cache/hosted/pub.dartlang.org/shared_preferences_linux-0.0.2+4",
      "packageUri": "lib/",
      "languageVersion": "2.1"
    },
    {
      "name": "shared_preferences_macos",
      "rootUri": "file:///Users/afamiliar/Downloads/flutter/.pub-cache/hosted/pub.dartlang.org/shared_preferences_macos-0.0.1+11",
      "packageUri": "lib/",
      "languageVersion": "2.1"
    },
    {
      "name": "shared_preferences_platform_interface",
      "rootUri": "file:///Users/afamiliar/Downloads/flutter/.pub-cache/hosted/pub.dartlang.org/shared_preferences_platform_interface-1.0.4",
      "packageUri": "lib/",
      "languageVersion": "2.1"
    },
    {
      "name": "shared_preferences_web",
      "rootUri": "file:///Users/afamiliar/Downloads/flutter/.pub-cache/hosted/pub.dartlang.org/shared_preferences_web-0.1.2+7",
      "packageUri": "lib/",
      "languageVersion": "2.1"
    },
    {
      "name": "shared_preferences_windows",
      "rootUri": "file:///Users/afamiliar/Downloads/flutter/.pub-cache/hosted/pub.dartlang.org/shared_preferences_windows-0.0.1+3",
      "packageUri": "lib/",
      "languageVersion": "2.1"
    },
    {
      "name": "shimmer",
      "rootUri": "file:///Users/afamiliar/Downloads/flutter/.pub-cache/hosted/pub.dartlang.org/shimmer-1.1.2",
      "packageUri": "lib/",
      "languageVersion": "1.20"
    },
    {
      "name": "sign_in_with_apple",
      "rootUri": "file:///Users/afamiliar/Downloads/flutter/.pub-cache/hosted/pub.dartlang.org/sign_in_with_apple-2.5.4",
      "packageUri": "lib/",
      "languageVersion": "2.3"
    },
    {
      "name": "sky_engine",
      "rootUri": "file:///Users/afamiliar/Downloads/flutter/bin/cache/pkg/sky_engine",
      "packageUri": "lib/",
      "languageVersion": "1.11"
    },
    {
      "name": "source_span",
      "rootUri": "file:///Users/afamiliar/Downloads/flutter/.pub-cache/hosted/pub.dartlang.org/source_span-1.8.0-nullsafety.2",
      "packageUri": "lib/",
      "languageVersion": "2.10"
    },
    {
      "name": "sqflite",
      "rootUri": "file:///Users/afamiliar/Downloads/flutter/.pub-cache/hosted/pub.dartlang.org/sqflite-1.3.2+2",
      "packageUri": "lib/",
      "languageVersion": "2.10"
    },
    {
      "name": "sqflite_common",
      "rootUri": "file:///Users/afamiliar/Downloads/flutter/.pub-cache/hosted/pub.dartlang.org/sqflite_common-1.0.3",
      "packageUri": "lib/",
      "languageVersion": "2.7"
    },
    {
      "name": "stack_trace",
      "rootUri": "file:///Users/afamiliar/Downloads/flutter/.pub-cache/hosted/pub.dartlang.org/stack_trace-1.10.0-nullsafety.1",
      "packageUri": "lib/",
      "languageVersion": "2.10"
    },
    {
      "name": "stream_channel",
      "rootUri": "file:///Users/afamiliar/Downloads/flutter/.pub-cache/hosted/pub.dartlang.org/stream_channel-2.1.0-nullsafety.1",
      "packageUri": "lib/",
      "languageVersion": "2.10"
    },
    {
      "name": "stream_transform",
      "rootUri": "file:///Users/afamiliar/Downloads/flutter/.pub-cache/hosted/pub.dartlang.org/stream_transform-1.2.0",
      "packageUri": "lib/",
      "languageVersion": "2.6"
    },
    {
      "name": "string_scanner",
      "rootUri": "file:///Users/afamiliar/Downloads/flutter/.pub-cache/hosted/pub.dartlang.org/string_scanner-1.1.0-nullsafety.1",
      "packageUri": "lib/",
      "languageVersion": "2.10"
    },
    {
      "name": "synchronized",
      "rootUri": "file:///Users/afamiliar/Downloads/flutter/.pub-cache/hosted/pub.dartlang.org/synchronized-2.2.0+2",
      "packageUri": "lib/",
      "languageVersion": "2.8"
    },
    {
      "name": "term_glyph",
      "rootUri": "file:///Users/afamiliar/Downloads/flutter/.pub-cache/hosted/pub.dartlang.org/term_glyph-1.2.0-nullsafety.1",
      "packageUri": "lib/",
      "languageVersion": "2.10"
    },
    {
      "name": "test_api",
      "rootUri": "file:///Users/afamiliar/Downloads/flutter/.pub-cache/hosted/pub.dartlang.org/test_api-0.2.19-nullsafety.2",
      "packageUri": "lib/",
      "languageVersion": "2.10"
    },
    {
      "name": "timezone",
      "rootUri": "file:///Users/afamiliar/Downloads/flutter/.pub-cache/hosted/pub.dartlang.org/timezone-0.5.9",
      "packageUri": "lib/",
      "languageVersion": "2.1"
    },
    {
      "name": "transparent_image",
      "rootUri": "file:///Users/afamiliar/Downloads/flutter/.pub-cache/hosted/pub.dartlang.org/transparent_image-1.0.0",
      "packageUri": "lib/",
      "languageVersion": "1.24"
    },
    {
      "name": "typed_data",
      "rootUri": "file:///Users/afamiliar/Downloads/flutter/.pub-cache/hosted/pub.dartlang.org/typed_data-1.3.0-nullsafety.3",
      "packageUri": "lib/",
      "languageVersion": "2.10"
    },
    {
      "name": "uni_links",
      "rootUri": "file:///Users/afamiliar/Downloads/flutter/.pub-cache/hosted/pub.dartlang.org/uni_links-0.4.0",
      "packageUri": "lib/",
      "languageVersion": "2.1"
    },
    {
      "name": "url_launcher",
      "rootUri": "file:///Users/afamiliar/Downloads/flutter/.pub-cache/hosted/pub.dartlang.org/url_launcher-5.7.10",
      "packageUri": "lib/",
      "languageVersion": "2.1"
    },
    {
      "name": "url_launcher_linux",
      "rootUri": "file:///Users/afamiliar/Downloads/flutter/.pub-cache/hosted/pub.dartlang.org/url_launcher_linux-0.0.1+4",
      "packageUri": "lib/",
      "languageVersion": "2.1"
    },
    {
      "name": "url_launcher_macos",
      "rootUri": "file:///Users/afamiliar/Downloads/flutter/.pub-cache/hosted/pub.dartlang.org/url_launcher_macos-0.0.1+9",
      "packageUri": "lib/",
      "languageVersion": "2.1"
    },
    {
      "name": "url_launcher_platform_interface",
      "rootUri": "file:///Users/afamiliar/Downloads/flutter/.pub-cache/hosted/pub.dartlang.org/url_launcher_platform_interface-1.0.9",
      "packageUri": "lib/",
      "languageVersion": "2.1"
    },
    {
      "name": "url_launcher_web",
      "rootUri": "file:///Users/afamiliar/Downloads/flutter/.pub-cache/hosted/pub.dartlang.org/url_launcher_web-0.1.5+1",
      "packageUri": "lib/",
      "languageVersion": "2.2"
    },
    {
      "name": "url_launcher_windows",
      "rootUri": "file:///Users/afamiliar/Downloads/flutter/.pub-cache/hosted/pub.dartlang.org/url_launcher_windows-0.0.1+3",
      "packageUri": "lib/",
      "languageVersion": "2.1"
    },
    {
      "name": "uuid",
      "rootUri": "file:///Users/afamiliar/Downloads/flutter/.pub-cache/hosted/pub.dartlang.org/uuid-2.2.2",
      "packageUri": "lib/",
      "languageVersion": "2.2"
    },
    {
      "name": "validators",
      "rootUri": "file:///Users/afamiliar/Downloads/flutter/.pub-cache/hosted/pub.dartlang.org/validators-2.0.1",
      "packageUri": "lib/",
      "languageVersion": "2.0"
    },
    {
      "name": "vector_math",
      "rootUri": "file:///Users/afamiliar/Downloads/flutter/.pub-cache/hosted/pub.dartlang.org/vector_math-2.1.0-nullsafety.3",
      "packageUri": "lib/",
      "languageVersion": "2.10"
    },
    {
      "name": "video_player",
      "rootUri": "file:///Users/afamiliar/Downloads/flutter/.pub-cache/hosted/pub.dartlang.org/video_player-1.0.1",
      "packageUri": "lib/",
      "languageVersion": "2.8"
    },
    {
      "name": "video_player_platform_interface",
      "rootUri": "file:///Users/afamiliar/Downloads/flutter/.pub-cache/hosted/pub.dartlang.org/video_player_platform_interface-2.2.0",
      "packageUri": "lib/",
      "languageVersion": "2.8"
    },
    {
      "name": "video_player_web",
      "rootUri": "file:///Users/afamiliar/Downloads/flutter/.pub-cache/hosted/pub.dartlang.org/video_player_web-0.1.4+1",
      "packageUri": "lib/",
      "languageVersion": "2.8"
    },
    {
      "name": "vin_decoder",
      "rootUri": "file:///Users/afamiliar/Downloads/flutter/.pub-cache/hosted/pub.dartlang.org/vin_decoder-0.1.3",
      "packageUri": "lib/",
      "languageVersion": "2.1"
    },
    {
      "name": "wakelock",
      "rootUri": "file:///Users/afamiliar/Downloads/flutter/.pub-cache/hosted/pub.dartlang.org/wakelock-0.2.1+1",
      "packageUri": "lib/",
      "languageVersion": "2.8"
    },
    {
      "name": "wakelock_platform_interface",
      "rootUri": "file:///Users/afamiliar/Downloads/flutter/.pub-cache/hosted/pub.dartlang.org/wakelock_platform_interface-0.1.0+1",
      "packageUri": "lib/",
      "languageVersion": "2.8"
    },
    {
      "name": "wakelock_web",
      "rootUri": "file:///Users/afamiliar/Downloads/flutter/.pub-cache/hosted/pub.dartlang.org/wakelock_web-0.1.0+3",
      "packageUri": "lib/",
      "languageVersion": "2.8"
    },
    {
      "name": "webview_cookie_manager",
      "rootUri": "file:///Users/afamiliar/Downloads/flutter/.pub-cache/hosted/pub.dartlang.org/webview_cookie_manager-1.0.5",
      "packageUri": "lib/",
      "languageVersion": "2.7"
    },
    {
      "name": "webview_flutter",
      "rootUri": "file:///Users/afamiliar/Downloads/flutter/.pub-cache/hosted/pub.dartlang.org/webview_flutter-1.0.7",
      "packageUri": "lib/",
      "languageVersion": "2.7"
    },
    {
      "name": "win32",
      "rootUri": "file:///Users/afamiliar/Downloads/flutter/.pub-cache/hosted/pub.dartlang.org/win32-1.7.4",
      "packageUri": "lib/",
      "languageVersion": "2.7"
    },
    {
      "name": "xdg_directories",
      "rootUri": "file:///Users/afamiliar/Downloads/flutter/.pub-cache/hosted/pub.dartlang.org/xdg_directories-0.1.2",
      "packageUri": "lib/",
      "languageVersion": "2.3"
    },
    {
      "name": "xml",
      "rootUri": "file:///Users/afamiliar/Downloads/flutter/.pub-cache/hosted/pub.dartlang.org/xml-4.5.1",
      "packageUri": "lib/",
      "languageVersion": "2.7"
    },
    {
      "name": "yaml",
      "rootUri": "file:///Users/afamiliar/Downloads/flutter/.pub-cache/hosted/pub.dartlang.org/yaml-2.2.1",
      "packageUri": "lib/",
      "languageVersion": "2.4"
    },
    {
      "name": "fitmybiz",
      "rootUri": "../",
      "packageUri": "lib/",
      "languageVersion": "2.7"
    }
  ],
  "generated": "2021-01-15T08:50:52.731419Z",
  "generator": "pub",
  "generatorVersion": "2.10.4"
}
